<!-- Generator: Adobe Illustrator 22.0.1, SVG Export Plug-In  -->
<svg version="1.1"
	 xmlns="http://www.w3.org/2000/svg" xmlns:xlink="http://www.w3.org/1999/xlink" xmlns:a="http://ns.adobe.com/AdobeSVGViewerExtensions/3.0/"
	 x="0px" y="0px" width="223.4px" height="228.8px" viewBox="0 0 223.4 228.8" style="enable-background:new 0 0 223.4 228.8;"
	 xml:space="preserve">
<style type="text/css">
	.st0{clip-path:url(#SVGID_2_);fill:url(#SVGID_3_);}
	.st1{clip-path:url(#SVGID_5_);fill:#29D9BF;}
	.st2{clip-path:url(#SVGID_7_);fill:#29D9BF;}
	.st3{clip-path:url(#SVGID_9_);fill:url(#SVGID_10_);}
	.st4{clip-path:url(#SVGID_12_);fill:#29D9BF;}
	.st5{clip-path:url(#SVGID_14_);fill:#29D9BF;}
</style>
<defs>
</defs>
<g>
	<defs>
		<path id="SVGID_1_" d="M156.1,69.9c0-17,13.7-30.7,30.7-30.7s30.7,13.7,30.7,30.7c0,17-13.7,30.7-30.7,30.7S156.1,86.8,156.1,69.9
			 M80.7,4.2c-1.4,3.4,0.3,7.2,3.7,8.6c2.9,1.1,6,0.1,7.8-2.2l17.5,7l25.8,60.4l-2.7,6.8c-4.5-10.9-8.9-21.7-13.4-32.6
			c-5.1-12.3-13.9-18.3-26.3-18.3c-11.7,0-19.7,5.1-25,15.6l-11.4,4.8l-24,59l-7.3-17.4L50.5,34l17.7-7.4c1.8,2.4,5,3.3,7.9,2.1
			c3.4-1.4,5-5.4,3.6-8.8c-1.4-3.4-5.4-5-8.8-3.6c-2.9,1.2-4.5,4.2-4,7.2l-19,8L21.7,95.9l8.8,20.9l0.9-0.4L25,132.1l-15.1-8
			l-6.4-20.6l7.8-14.8c2.8,0.7,5.8-0.6,7.3-3.3c1.7-3.2,0.5-7.1-2.7-8.8c-3.2-1.7-7.1-0.5-8.8,2.7c-1.4,2.7-0.8,5.9,1.4,7.8l-8.5,16
			l7.2,23.2l16.6,8.7l-0.2,0.6l4.6,10.9c-5.8,14.1-11.6,28.3-17.4,42.4l-5.6-13.3l7.7-18.8c2.7,0.4,5.4-1.1,6.5-3.7
			c1.3-3.1-0.2-6.7-3.4-8c-3.1-1.3-6.7,0.2-8,3.4c-1.1,2.6-0.2,5.6,2,7.2l-8.1,20l7.3,17.2c-0.5,1.1-0.9,2.3-1.4,3.4
			c-5.3,12.9-0.1,20.8,14.1,20.9c5.4,0,12.4,0,20.2,0L52.3,228l65.5,0.8l13.9-13.5c2.4,1.5,5.6,1.2,7.7-0.9c2.5-2.4,2.6-6.5,0.1-9
			c-2.4-2.5-6.5-2.6-9-0.1c-2.1,2.1-2.5,5.2-1.1,7.7l-12.9,12.6l-62.9-0.8l-7.2-7.4c22.9,0,51.1,0,67.6-0.1v-28.5H41.2
			c17.4-42.3,34.2-83.4,51.6-125.9c1.5,3.1,2.3,4.5,3,6c17.9,43.9,35.9,87.8,53.8,131.7c4.6,11.3,17.4,18.3,29.7,16
			c13.4-2.5,22.2-11.7,22.2-24.1c0-2.6,0-5,0-7.2l11.2-11.2v-23.4c2.9-0.7,5-3.3,5-6.4c0-3.7-3-6.6-6.6-6.6c-3.7,0-6.6,3-6.6,6.6
			c0,3.1,2.1,5.7,5,6.4v22l-7.9,7.9c0.1-35.4,0.1-34.1-0.3-76.9c13.1-5.5,22.3-18.4,22.3-33.5c0-20-16.2-36.3-36.3-36.3
			c-20,0-36.3,16.2-36.3,36.3c0,15,9.1,27.8,22,33.4c0.1,32.5,0.1,25.1,0.1,46.2l-6.5-6.5v-22c2.9-0.7,5-3.3,5-6.4
			c0-3.7-3-6.6-6.6-6.6c-3.7,0-6.6,3-6.6,6.6c0,3.1,2.1,5.7,5,6.4v23.4l9.9,9.9c0,2.6,0,5.5,0,8.8c0,4.7,0,9.3,0,14
			c-0.6,0.1-1.3,0.1-1.9,0.2c-0.7-1.5-1.4-3-2-4.5c-11.5-27.9-23-55.9-34.4-83.8l4.4-11l10.4-24.5l-8.7-21.5
			c2.4-1.7,3.3-4.9,2.2-7.7c-1.4-3.4-5.2-5-8.6-3.6c-3.4,1.4-5,5.2-3.6,8.6c1.1,2.8,4.1,4.4,7,4l8.2,20.3l-8.5,20.1L112.1,15
			L93.4,7.5c0.4-2.9-1.2-5.8-4.1-7C88.5,0.2,87.6,0,86.8,0C84.2,0,81.7,1.6,80.7,4.2"/>
	</defs>
	<clipPath id="SVGID_2_">
		<use xlink:href="#SVGID_1_"  style="overflow:visible;"/>
	</clipPath>

		<linearGradient id="SVGID_3_" gradientUnits="userSpaceOnUse" x1="-619.3855" y1="685.6155" x2="-618.3854" y2="685.6155" gradientTransform="matrix(223.4177 0 0 -223.4177 138381.6719 153293.0312)">
		<stop  offset="0" style="stop-color:#0786A3"/>
		<stop  offset="0.5466" style="stop-color:#29D9BF"/>
		<stop  offset="1" style="stop-color:#29D9BF"/>
	</linearGradient>
	<rect class="st0" width="223.4" height="228.8"/>
</g>
<g>
	<defs>
		<path id="SVGID_4_" d="M179.5,69.4c0-0.6,0.5-1,1-1c0.6,0,1,0.5,1,1c0,0.6-0.5,1-1,1C180,70.5,179.5,70,179.5,69.4 M201.3,65.6
			c0-0.6,0.5-1,1-1c0.6,0,1,0.5,1,1c0,0.6-0.5,1-1,1C201.7,66.6,201.3,66.1,201.3,65.6 M199.6,64.7h-6.3c-0.2,0-0.5,0.1-0.6,0.3
			l-3.6,3.6h-5.9c-0.4-1.1-1.4-1.9-2.7-1.9c-1.5,0-2.8,1.3-2.8,2.8c0,1.5,1.3,2.8,2.8,2.8c1.2,0,2.3-0.8,2.7-1.9h6.3
			c0.2,0,0.5-0.1,0.6-0.3l3.6-3.6h5.9c0.4,1.1,1.4,1.9,2.7,1.9c1.5,0,2.8-1.3,2.8-2.8c0-1.5-1.3-2.8-2.8-2.8
			C201.1,62.8,200,63.6,199.6,64.7"/>
	</defs>
	<use xlink:href="#SVGID_4_"  style="overflow:visible;fill:#29D9BF;"/>
	<clipPath id="SVGID_5_">
		<use xlink:href="#SVGID_4_"  style="overflow:visible;"/>
	</clipPath>
	<rect x="177.7" y="62.8" class="st1" width="27.4" height="9.5"/>
</g>
<g>
	<defs>
		<path id="SVGID_6_" d="M183.3,77.1c0-0.6,0.5-1,1-1c0.6,0,1,0.5,1,1c0,0.6-0.5,1-1,1C183.8,78.2,183.3,77.7,183.3,77.1
			 M201.3,73.3c0-0.6,0.5-1,1-1c0.6,0,1,0.5,1,1c0,0.6-0.5,1-1,1C201.7,74.3,201.3,73.8,201.3,73.3 M175.6,61.7c0-0.6,0.5-1,1-1
			c0.6,0,1,0.5,1,1c0,0.6-0.5,1-1,1C176.1,62.8,175.6,62.3,175.6,61.7 M201.3,57.9c0-0.6,0.5-1,1-1c0.6,0,1,0.5,1,1c0,0.6-0.5,1-1,1
			C201.7,58.9,201.3,58.4,201.3,57.9 M171.7,53.5c-2.8,2.7-4.2,6.2-4.2,10.2c0,0.2,0.1,0.5,0.3,0.6c0.1,0.1,1.7,1.7,1.7,3.2
			c0,0.7-1.7,3-2.7,4.3l-0.1,0.1c-0.4,0.6-0.8,1.1-1.2,1.6c-0.6,0.9-0.7,2-0.2,2.9c0.5,0.9,1.4,1.5,2.5,1.5h1c0.5,0,0.9,0.4,1,0.8
			l1.3,6.5c0.3,1.3,1.4,2.2,2.7,2.2h3.5c0.6,0,1,0.5,1,1v1c0,1,0.8,1.8,1.8,1.8h21.2c1,0,1.8-0.8,1.8-1.8V75.9
			c1.1-0.4,1.9-1.4,1.9-2.7c0-1.5-1.3-2.8-2.8-2.8c-1.2,0-2.3,0.8-2.7,1.9h-3.1c-0.2,0-0.5,0.1-0.6,0.3l-3.6,3.6H187
			c-0.4-1.1-1.4-1.9-2.7-1.9c-1.5,0-2.8,1.3-2.8,2.8c0,1.5,1.3,2.8,2.8,2.8c1.2,0,2.3-0.8,2.7-1.9h5.6c0.2,0,0.5-0.1,0.6-0.3
			l3.6-3.6h2.7c0.3,0.8,0.9,1.5,1.8,1.8v13.7c0,0,0,0.1-0.1,0.1h-21.2c-0.1,0-0.1,0-0.1-0.1v-1c0-1.5-1.3-2.8-2.8-2.8h-3.5
			c-0.5,0-0.9-0.4-1-0.8l-1.3-6.5c-0.3-1.3-1.4-2.2-2.8-2.2h-1c-0.4,0-0.7-0.2-0.9-0.6c-0.2-0.4-0.2-0.8,0.1-1.1
			c0.4-0.5,0.8-1,1.1-1.6l0.1-0.2c1.9-2.5,3.1-4.2,3.1-5.4c0-1.8-1.4-3.5-1.9-4.2c0.1-6.5,5.7-13.5,17.7-13.6c4,0,12.3,0.9,14.2,2.7
			c0.2,0.2,0.3,0.4,0.3,0.6v2.1c-0.8,0.3-1.5,0.9-1.8,1.8h-9.5c-0.2,0-0.5,0.1-0.6,0.3l-3.6,3.6h-6.6c-0.4-1.1-1.4-1.9-2.7-1.9
			c-1.5,0-2.8,1.3-2.8,2.8c0,1.5,1.3,2.8,2.8,2.8c1.2,0,2.3-0.8,2.7-1.9h7c0.2,0,0.5-0.1,0.6-0.3l3.6-3.6h9.1
			c0.4,1.1,1.4,1.9,2.7,1.9c1.5,0,2.8-1.3,2.8-2.8c0-1.2-0.8-2.3-1.9-2.7v-2.1c0-4.4-12.2-5-16-5.1c-0.2,0-0.3,0-0.5,0
			C180.7,48,175.3,50,171.7,53.5"/>
	</defs>
	<use xlink:href="#SVGID_6_"  style="overflow:visible;fill:#29D9BF;"/>
	<clipPath id="SVGID_7_">
		<use xlink:href="#SVGID_6_"  style="overflow:visible;"/>
	</clipPath>
	<rect x="164.7" y="48" class="st2" width="40.4" height="43.5"/>
</g>
</svg>
