<?xml version="1.0" encoding="utf-8"?>
<!-- Generator: Adobe Illustrator 15.0.0, SVG Export Plug-In . SVG Version: 6.00 Build 0)  -->
<!DOCTYPE svg PUBLIC "-//W3C//DTD SVG 1.1//EN" "http://www.w3.org/Graphics/SVG/1.1/DTD/svg11.dtd">
<svg version="1.1" id="Шар_1" xmlns="http://www.w3.org/2000/svg" xmlns:xlink="http://www.w3.org/1999/xlink" x="0px" y="0px"
	 width="808.695px" height="228.753px" viewBox="0 0 808.695 228.753" enable-background="new 0 0 808.695 228.753"
	 xml:space="preserve">
<path fill="#033540" d="M282.152,182.324c0,4.5-1.608,8.354-4.819,11.564c-3.216,3.211-7.15,4.818-11.806,4.818
	c-4.5,0-8.354-1.607-11.566-4.818c-3.216-3.211-4.819-7.064-4.819-11.564c0-4.497,1.603-8.35,4.819-11.564
	c3.212-3.211,7.066-4.821,11.566-4.821c4.656,0,8.59,1.61,11.806,4.821C280.544,173.975,282.152,177.827,282.152,182.324"/>
<polygon fill="#033540" points="409.613,53.418 359.256,53.418 359.256,196.781 333.715,196.781 333.715,53.418 283.358,53.418
	283.358,28.599 409.613,28.599 "/>
<path fill="#033540" d="M486.477,84.017l-10.844,22.168c-5.781-3.211-11.084-4.818-15.902-4.818c-5.624,0-10.602,1.444-14.938,4.337
	c-4.981,3.214-7.469,7.467-7.469,12.768v78.309h-24.095V78.957h24.095v3.616c6.904-3.212,14.374-4.819,22.407-4.819
	C468.08,77.754,476.997,79.843,486.477,84.017"/>
<path fill="#033540" d="M582.853,192.203l-23.613,6.745l-1.928-6.264c-8.517,4.337-18.395,6.507-29.637,6.507
	c-11.406,0-21.324-3.572-29.756-10.724c-8.435-7.146-12.649-15.94-12.649-26.382c0-10.605,4.215-19.598,12.649-26.987
	c8.432-7.387,18.35-11.083,29.756-11.083h19.518c2.729,0,5.06-0.641,6.987-1.929v-10.36c0-2.893-1.649-5.541-4.938-7.953
	c-3.295-2.407-7.592-3.611-12.892-3.611c-12.371,0-20.565,5.059-24.576,15.178l-23.614-6.988
	c7.711-21.362,23.772-32.044,48.19-32.044c11.402,0,21.323,3.371,29.757,10.119c8.432,6.745,12.649,15.179,12.649,25.299v67.464
	L582.853,192.203z M554.18,167.627V145.94c-2.251,0.482-4.578,0.723-6.987,0.723h-19.518c-4.98,0-9.197,1.688-12.649,5.06
	c-3.455,3.374-5.18,6.829-5.18,10.363c0,3.371,1.687,6.588,5.06,9.638c3.374,3.052,7.627,4.578,12.77,4.578
	C538.917,176.302,547.752,173.409,554.18,167.627"/>
<path fill="#033540" d="M696.82,193.166l-23.613,6.989l-2.409-7.952c-7.872,4.656-16.625,6.988-26.263,6.988
	c-19.119,0-33.01-7.47-41.685-22.408c-5.301-9.315-7.951-22.41-7.951-39.276c0-16.864,2.65-29.877,7.951-39.032
	c8.675-14.939,22.565-22.407,41.685-22.407c8.35,0,16.06,1.686,23.13,5.06V28.599h24.816v150.11L696.82,193.166z M667.665,121.124
	c-0.482-4.494-1.445-8.03-2.893-10.601c-3.854-6.748-10.6-10.119-20.237-10.119c-9.64,0-16.385,3.371-20.24,10.119
	c-3.054,5.463-4.578,14.457-4.578,26.984c0,12.53,1.524,21.529,4.578,26.986c3.855,6.749,10.601,10.12,20.24,10.12
	c9.638,0,16.383-3.371,20.237-10.12c1.447-2.567,2.41-6.101,2.893-10.601V121.124z"/>
<path fill="#033540" d="M808.616,147.388h-74.694c0.64,7.709,2.248,13.413,4.819,17.104c4.818,7.231,12.929,10.843,24.335,10.843
	c9.796,0,18.151-3.771,25.059-11.323l19.758,14.697c-12.209,13.493-27.068,20.239-44.574,20.239c-20.563,0-35.66-7.146-45.3-21.442
	c-6.105-9.156-9.154-22.247-9.154-39.274c0-17.024,3.049-30.12,9.154-39.276c9.477-13.975,23.855-20.961,43.131-20.961
	c17.506,0,30.92,7.07,40.238,21.202c3.854,5.625,6.181,13.415,6.987,23.372C808.694,125.942,808.774,134.217,808.616,147.388
	 M783.557,123.535c-0.644-5.785-1.606-9.638-2.892-11.567c-4.66-6.745-11.244-10.12-19.756-10.12
	c-14.782,0-23.535,7.227-26.265,21.687H783.557z"/>
<g>
	<defs>
		<path id="SVGID_1_" d="M156.073,69.865c0-16.957,13.747-30.705,30.705-30.705s30.706,13.748,30.706,30.705
			c0,16.958-13.748,30.706-30.706,30.706S156.073,86.823,156.073,69.865 M80.687,4.156c-1.359,3.391,0.289,7.24,3.679,8.598
			c2.859,1.146,6.025,0.137,7.768-2.233l17.515,7.018l25.844,60.391l-2.717,6.781c-4.465-10.858-8.917-21.723-13.392-32.577
			c-5.054-12.256-13.892-18.272-26.29-18.267C81.44,33.87,73.415,38.996,68.132,49.47l-11.436,4.814l-24.049,59.012l-7.338-17.431
			l25.192-61.816l17.672-7.438c1.813,2.378,5.049,3.346,7.932,2.133c3.42-1.44,5.027-5.38,3.587-8.801s-5.38-5.028-8.801-3.588
			c-2.884,1.214-4.454,4.205-4.02,7.164l-18.952,7.978l-26.24,64.389l8.789,20.881l0.922-0.389l-6.423,15.763l-15.09-7.965
			l-6.37-20.613l7.826-14.827c2.822,0.669,5.844-0.595,7.26-3.278c1.681-3.183,0.462-7.126-2.721-8.806
			c-3.184-1.681-7.126-0.462-8.807,2.721c-1.416,2.684-0.754,5.892,1.391,7.845L0,103.236l7.167,23.188l16.566,8.745l-0.242,0.593
			l4.605,10.94c-5.794,14.134-11.568,28.276-17.372,42.407l-5.585-13.259l7.665-18.819c2.697,0.363,5.401-1.097,6.475-3.734
			c1.275-3.127-0.228-6.696-3.357-7.969c-3.127-1.274-6.696,0.229-7.969,3.356c-1.075,2.637-0.159,5.571,2.025,7.195l-8.143,19.989
			l7.256,17.227c-0.465,1.133-0.927,2.266-1.392,3.398c-5.306,12.911-0.103,20.823,14.116,20.864
			c5.446,0.014,12.423,0.022,20.183,0.026l10.317,10.571l65.547,0.797l13.873-13.54c2.411,1.461,5.585,1.194,7.696-0.866
			c2.504-2.444,2.552-6.455,0.109-8.958c-2.444-2.506-6.455-2.556-8.96-0.11c-2.11,2.06-2.455,5.226-1.054,7.672l-12.936,12.625
			l-62.926-0.765l-7.244-7.424c22.91,0.008,51.116-0.023,67.635-0.055v-28.465H41.166c17.35-42.316,34.204-83.426,51.629-125.928
			c1.516,3.068,2.336,4.498,2.954,6.009c17.938,43.883,35.875,87.764,53.76,131.668c4.584,11.251,17.445,18.254,29.738,15.999
			c13.409-2.461,22.15-11.682,22.17-24.135c0.004-2.575,0.008-4.965,0.012-7.244l11.249-11.249v-23.406
			c2.857-0.739,4.977-3.311,4.977-6.399c0-3.662-2.97-6.631-6.632-6.631c-3.663,0-6.632,2.969-6.632,6.631
			c0,3.088,2.12,5.659,4.977,6.399v22.035l-7.931,7.932c0.062-35.38,0.07-34.097-0.334-76.913
			c13.104-5.47,22.316-18.403,22.316-33.49c0-20.036-16.242-36.278-36.279-36.278c-20.035,0-36.278,16.242-36.278,36.278
			c0,14.977,9.078,27.832,22.031,33.37c0.092,32.5,0.074,25.095,0.071,46.208l-6.542-6.543v-22.036
			c2.856-0.739,4.976-3.31,4.976-6.397c0-3.663-2.97-6.632-6.632-6.632c-3.663,0-6.632,2.969-6.632,6.632
			c0,3.088,2.12,5.659,4.977,6.397v23.406l9.852,9.854c0,2.584,0.001,5.493,0.002,8.844c0,4.66,0,9.32,0,13.98
			c-0.642,0.057-1.283,0.112-1.923,0.169c-0.675-1.501-1.394-2.985-2.019-4.507c-11.482-27.934-22.964-55.866-34.448-83.799
			l4.389-10.952l10.401-24.548l-8.709-21.52c2.352-1.742,3.343-4.896,2.195-7.735c-1.363-3.367-5.198-4.993-8.565-3.629
			c-3.368,1.362-4.994,5.197-3.63,8.565c1.149,2.838,4.054,4.415,6.956,4.03l8.2,20.261l-8.537,20.146l-25.13-58.727L93.362,7.457
			c0.375-2.919-1.219-5.835-4.077-6.98C88.479,0.153,87.646,0,86.827,0C84.204,0,81.721,1.572,80.687,4.156"/>
	</defs>
	<use xlink:href="#SVGID_1_"  overflow="visible" fill="#033540"/>
	<clipPath id="SVGID_2_">
		<use xlink:href="#SVGID_1_"  overflow="visible"/>
	</clipPath>
	<rect clip-path="url(#SVGID_2_)" fill="#033540" width="223.419" height="228.753"/>
</g>
<g>
	<defs>
		<path id="SVGID_3_" d="M179.493,69.417c0-0.576,0.468-1.045,1.044-1.045c0.576,0,1.045,0.469,1.045,1.045
			c0,0.575-0.469,1.044-1.045,1.044C179.961,70.461,179.493,69.992,179.493,69.417 M201.264,65.567c0-0.576,0.468-1.045,1.044-1.045
			c0.576,0,1.045,0.469,1.045,1.045c0,0.576-0.469,1.044-1.045,1.044C201.732,66.611,201.264,66.143,201.264,65.567 M199.646,64.688
			h-6.298c-0.235,0-0.455,0.092-0.622,0.257l-3.591,3.592H183.2c-0.375-1.133-1.447-1.925-2.663-1.925
			c-1.547,0-2.805,1.259-2.805,2.806c0,1.546,1.258,2.804,2.805,2.804c1.216,0,2.288-0.792,2.663-1.925h6.299
			c0.236,0,0.456-0.091,0.622-0.258l3.591-3.591h5.933c0.375,1.133,1.447,1.925,2.663,1.925c1.546,0,2.804-1.259,2.804-2.805
			s-1.258-2.804-2.804-2.804C201.092,62.763,200.021,63.555,199.646,64.688"/>
	</defs>
	<use xlink:href="#SVGID_3_"  overflow="visible" fill="#033540"/>
	<clipPath id="SVGID_4_">
		<use xlink:href="#SVGID_3_"  overflow="visible"/>
	</clipPath>
	<rect x="177.732" y="62.763" clip-path="url(#SVGID_4_)" fill="#033540" width="27.38" height="9.458"/>
</g>
<g>
	<defs>
		<path id="SVGID_5_" d="M183.341,77.113c0-0.575,0.468-1.044,1.044-1.044s1.045,0.469,1.045,1.044c0,0.576-0.469,1.045-1.045,1.045
			S183.341,77.689,183.341,77.113 M201.264,73.265c0-0.576,0.468-1.044,1.044-1.044c0.576,0,1.045,0.468,1.045,1.044
			c0,0.576-0.469,1.045-1.045,1.045C201.732,74.31,201.264,73.841,201.264,73.265 M175.643,61.719c0-0.576,0.469-1.045,1.044-1.045
			c0.577,0,1.045,0.469,1.045,1.045c0,0.575-0.468,1.044-1.045,1.044C176.112,62.763,175.643,62.294,175.643,61.719 M201.264,57.87
			c0-0.576,0.468-1.045,1.044-1.045c0.576,0,1.045,0.469,1.045,1.045c0,0.576-0.469,1.044-1.045,1.044
			C201.732,58.914,201.264,58.446,201.264,57.87 M171.705,53.462c-2.766,2.716-4.227,6.237-4.227,10.181
			c0,0.231,0.093,0.458,0.254,0.62c0.069,0.069,1.67,1.734,1.67,3.229c0,0.681-1.705,2.957-2.727,4.322l-0.088,0.118
			c-0.412,0.553-0.824,1.104-1.198,1.63c-0.614,0.859-0.695,1.977-0.213,2.919c0.483,0.933,1.436,1.513,2.488,1.513h1.039
			c0.499,0,0.939,0.356,1.044,0.838l1.289,6.542c0.281,1.299,1.437,2.242,2.747,2.242h3.502c0.577,0,1.045,0.468,1.045,1.044v0.962
			c0,1.034,0.809,1.843,1.842,1.843h21.174c1.016,0,1.842-0.827,1.842-1.843V75.928c1.132-0.374,1.924-1.447,1.924-2.663
			c0-1.546-1.258-2.804-2.804-2.804c-1.216,0-2.288,0.792-2.663,1.924h-3.11c-0.236,0-0.456,0.092-0.622,0.257l-3.591,3.592h-5.274
			c-0.374-1.133-1.446-1.924-2.663-1.924c-1.546,0-2.803,1.258-2.803,2.803c0,1.547,1.257,2.806,2.803,2.806
			c1.217,0,2.289-0.792,2.663-1.925h5.638c0.235,0,0.456-0.091,0.623-0.258l3.591-3.591h2.745c0.278,0.844,0.938,1.506,1.782,1.783
			v13.694c0,0.045-0.036,0.083-0.081,0.083h-21.174c-0.054,0-0.082-0.029-0.082-0.083V88.66c0-1.546-1.258-2.804-2.805-2.804h-3.502
			c-0.488,0-0.919-0.356-1.024-0.838l-1.289-6.543c-0.283-1.299-1.446-2.241-2.767-2.241h-1.039c-0.402,0-0.739-0.205-0.923-0.561
			c-0.183-0.355-0.153-0.762,0.081-1.09c0.358-0.504,0.751-1.03,1.146-1.559l0.116-0.156c1.908-2.546,3.077-4.168,3.077-5.376
			c0-1.821-1.352-3.547-1.919-4.19c0.15-6.494,5.715-13.47,17.669-13.576c3.964-0.036,12.334,0.869,14.202,2.719
			c0.212,0.21,0.314,0.411,0.314,0.614v2.147c-0.844,0.279-1.504,0.939-1.782,1.783h-9.486c-0.236,0-0.457,0.092-0.622,0.259
			l-3.591,3.591h-6.595c-0.375-1.133-1.447-1.925-2.664-1.925c-1.546,0-2.803,1.258-2.803,2.805c0,1.546,1.257,2.803,2.803,2.803
			c1.217,0,2.289-0.792,2.664-1.924h6.959c0.235,0,0.456-0.091,0.622-0.257l3.591-3.591h9.122c0.375,1.132,1.447,1.924,2.663,1.924
			c1.546,0,2.804-1.258,2.804-2.804c0-1.216-0.792-2.288-1.924-2.664v-2.147c0-4.44-12.209-5.009-15.951-5.077
			c-0.174-0.003-0.348-0.005-0.521-0.005C180.72,47.977,175.265,49.967,171.705,53.462"/>
	</defs>
	<use xlink:href="#SVGID_5_"  overflow="visible" fill="#033540"/>
	<clipPath id="SVGID_6_">
		<use xlink:href="#SVGID_5_"  overflow="visible"/>
	</clipPath>
	<rect x="164.694" y="47.977" clip-path="url(#SVGID_6_)" fill="#033540" width="40.418" height="43.488"/>
</g>
</svg>
