<?xml version="1.0" encoding="UTF-8"?><!DOCTYPE svg PUBLIC "-//W3C//DTD SVG 1.1//EN" "http://www.w3.org/Graphics/SVG/1.1/DTD/svg11.dtd"><svg xmlns="http://www.w3.org/2000/svg"><symbol id="icon-altcoin" viewBox="0 0 89.7 97">
    <style>
        .st0{fill:#424242}
    </style>
    <path class="st0" d="M61.3 23.6c.4-.5.7-1 .9-1.6.3-.8.4-1.6.4-2.4 0-3.4-2.6-6.3-5.9-6.7v-2.2c0-1.1-.9-2-2-2s-2 .9-2 2v2.1h-2.6v-2.1c0-1.1-.9-2-2-2s-2 .9-2 2v2.1h-2c-1.1 0-2 .9-2 2s.9 2 2 2h2v15h-2c-1.1 0-2 .9-2 2s.9 2 2 2h2V38c0 1.1.9 2 2 2s2-.9 2-2v-2.1h2.6V38c0 1.1.9 2 2 2s2-.9 2-2v-2.1h.7c3.7 0 6.8-3 6.8-6.8 0-2.2-1.2-4.3-2.9-5.5zm-5.4-6.7c1.5 0 2.8 1.2 2.8 2.8 0 .3-.1.7-.2 1-.1.2-.2.5-.4.7-.5.7-1.3 1.1-2.2 1.1h-5.8V17h5.8zm1.5 15h-7.3v-5.5h7.4c1.5 0 2.8 1.2 2.8 2.8-.1 1.5-1.4 2.7-2.9 2.7z"/>
    <path class="st0" d="M53 48.1c-13.3 0-24-10.8-24-24S39.7 0 53 0s24 10.8 24 24-10.8 24.1-24 24.1zM53 4c-11.1 0-20 9-20 20s9 20 20 20c11.1 0 20-9 20-20S64 4 53 4z"/>
    <path class="st0" d="M26.6 97c-.5 0-1-.2-1.4-.6-.8-.8-.8-2 0-2.8l6-6L9.4 65.8l-6 6c-.8.8-2 .8-2.8 0-.8-.8-.8-2 0-2.8L8 61.6c.8-.8 2.1-.8 2.8 0l24.6 24.6c.4.4.6.9.6 1.4 0 .5-.2 1-.6 1.4L28 96.4c-.3.4-.8.6-1.4.6z"/>
    <path class="st0" d="M62.7 55.4c-1.2-2.6-3.9-4.2-6.7-4.2H32.5c-3.7 0-7.3 1.5-9.9 4.1l-9 9 2.8 2.8 9-9c1.9-1.9 4.5-2.9 7.1-2.9H56c1.3 0 2.5.8 3.1 1.9.4.9.4 2 0 3-.6 1.2-1.8 1.9-3.1 1.9H38.4c-1.1 0-2 .9-2 2s.9 2 2 2H56c2.8 0 5.5-1.7 6.7-4.2 1-1.9 1-4.3 0-6.4z"/>
    <path class="st0" d="M88.7 52.3c-2-3.5-6.6-4.8-10.2-2.7-.1 0-.1.1-.2.1L63.4 61c-.9.7-2.1 1.1-3.3 1.1H38.4c-1.1 0-2 .9-2 2s.9 2 2 2h21.7c2 0 4.1-.7 5.7-1.9L80.6 53c1.6-.9 3.7-.3 4.6 1.3.9 1.6.4 3.7-1.3 4.7-.1 0-.1.1-.2.1L66.4 72c-1 .6-2.2.9-3.2.9H40.9c-2.1 0-4.1.9-5.6 2.4L30 80.6l2.8 2.8 5.3-5.3c.8-.8 1.8-1.2 2.8-1.2h22.3c2.5 0 4.5-1.1 5.3-1.6.1 0 .1-.1.2-.1l17.4-12.9c3.4-2 4.6-6.5 2.6-10z"/>
</symbol><symbol id="icon-arbitr" viewBox="0 0 133.3 97">
    <style>
        .st0{fill:#424242}
    </style>
    <path class="st0" d="M77.6 47.6c.3-.3.5-.6.7-.9.5-.7.9-1.5 1.3-2.3.4-1.1.6-2.2.6-3.4 0-5.2-4.2-9.4-9.4-9.4h-1.9v-4.4c0-1.1-.9-2-2-2s-2 .9-2 2v4.4h-4.2v-4.4c0-1.1-.9-2-2-2s-2 .9-2 2v4.4h-4.3c-1.1 0-2 .9-2 2s.9 2 2 2h4.3v25.7h-4.3c-1.1 0-2 .9-2 2s.9 2 2 2h4.3v4.4c0 1.1.9 2 2 2s2-.9 2-2v-4.4h4.2v4.4c0 1.1.9 2 2 2s2-.9 2-2v-4.4h4.3c5.2 0 9.4-4.2 9.4-9.4 0-3.6-2-6.7-5-8.3zm-6.8-12c3 0 5.4 2.4 5.4 5.4 0 .7-.1 1.3-.4 1.9-.2.5-.4.9-.7 1.3-1 1.4-2.6 2.2-4.3 2.2H60.6V35.6h10.2zm2.4 25.8H60.6V50.5h12.5c3 0 5.4 2.4 5.4 5.4.1 3-2.3 5.5-5.3 5.5z"/>
    <path class="st0" d="M40.8 40.6c-1.1 0-2-.9-2-2v-3.3c0-1.1.9-2 2-2s2 .9 2 2v3.3c0 1.1-.9 2-2 2z"/>
    <path class="st0" d="M40.8 63.7c-1.1 0-2-.9-2-2v-3.3c0-1.1.9-2 2-2s2 .9 2 2v3.3c0 1.1-.9 2-2 2z"/>
    <path class="st0" d="M40.8 52.2c-1.1 0-2-.9-2-2v-3.3c0-1.1.9-2 2-2s2 .9 2 2v3.3c0 1.1-.9 2-2 2z"/>
    <path class="st0" d="M92.7 40.6c-1.1 0-2-.9-2-2v-3.3c0-1.1.9-2 2-2s2 .9 2 2v3.3c0 1.1-.9 2-2 2z"/>
    <path class="st0" d="M92.7 63.7c-1.1 0-2-.9-2-2v-3.3c0-1.1.9-2 2-2s2 .9 2 2v3.3c0 1.1-.9 2-2 2z"/>
    <path class="st0" d="M92.7 52.2c-1.1 0-2-.9-2-2v-3.3c0-1.1.9-2 2-2s2 .9 2 2v3.3c0 1.1-.9 2-2 2z"/>
    <path class="st0" d="M98.4 12.3c-.5 0-1-.2-1.4-.6L89.3 4H43.8l-7.2 7.2c-.8.8-2 .8-2.8 0-.8-.8-.8-2 0-2.8L41.6.6c.4-.4.9-.6 1.4-.6h47.1c.5 0 1 .2 1.4.6l8.3 8.3c.8.8.8 2 0 2.8-.3.4-.9.6-1.4.6z"/>
    <path class="st0" d="M90.2 97H43c-.5 0-1-.2-1.4-.6l-7.8-7.8c-.8-.8-.8-2 0-2.8.8-.8 2-.8 2.8 0l7.2 7.2h45.5l7.7-7.7c.8-.8 2-.8 2.8 0 .8.8.8 2 0 2.8l-8.3 8.3c-.3.4-.8.6-1.3.6z"/>
    <path class="st0" d="M125.2 56.7c-4.5 0-8.2-3.7-8.2-8.2s3.7-8.2 8.2-8.2c4.5 0 8.2 3.7 8.2 8.2s-3.7 8.2-8.2 8.2zm0-12.4c-2.3 0-4.2 1.9-4.2 4.2 0 2.3 1.9 4.2 4.2 4.2 2.3 0 4.2-1.9 4.2-4.2-.1-2.3-1.9-4.2-4.2-4.2z"/>
    <path class="st0" d="M117.7 87.7c-4.5 0-8.2-3.7-8.2-8.2s3.7-8.2 8.2-8.2c4.5 0 8.2 3.7 8.2 8.2s-3.7 8.2-8.2 8.2zm0-12.3c-2.3 0-4.2 1.9-4.2 4.2 0 2.3 1.9 4.2 4.2 4.2 2.3 0 4.2-1.9 4.2-4.2 0-2.4-1.9-4.2-4.2-4.2z"/>
    <path class="st0" d="M117.7 25.6c-4.5 0-8.2-3.7-8.2-8.2s3.7-8.2 8.2-8.2c4.5 0 8.2 3.7 8.2 8.2s-3.7 8.2-8.2 8.2zm0-12.3c-2.3 0-4.2 1.9-4.2 4.2 0 2.3 1.9 4.2 4.2 4.2 2.3 0 4.2-1.9 4.2-4.2 0-2.3-1.9-4.2-4.2-4.2z"/>
    <path class="st0" d="M8.2 56.7C3.7 56.7 0 53 0 48.5s3.7-8.2 8.2-8.2c4.5 0 8.2 3.7 8.2 8.2s-3.7 8.2-8.2 8.2zm0-12.4c-2.3 0-4.2 1.9-4.2 4.2 0 2.3 1.9 4.2 4.2 4.2 2.3 0 4.2-1.9 4.2-4.2-.1-2.3-1.9-4.2-4.2-4.2z"/>
    <path class="st0" d="M15.6 87.7c-4.5 0-8.2-3.7-8.2-8.2s3.7-8.2 8.2-8.2c4.5 0 8.2 3.7 8.2 8.2s-3.7 8.2-8.2 8.2zm0-12.3c-2.3 0-4.2 1.9-4.2 4.2 0 2.3 1.9 4.2 4.2 4.2 2.3 0 4.2-1.9 4.2-4.2 0-2.4-1.9-4.2-4.2-4.2z"/>
    <path class="st0" d="M15.6 25.6c-4.5 0-8.2-3.7-8.2-8.2s3.7-8.2 8.2-8.2c4.5 0 8.2 3.7 8.2 8.2s-3.7 8.2-8.2 8.2zm0-12.3c-2.3 0-4.2 1.9-4.2 4.2 0 2.3 1.9 4.2 4.2 4.2 2.3 0 4.2-1.9 4.2-4.2 0-2.3-1.9-4.2-4.2-4.2z"/>
    <path class="st0" d="M30.1 60.8H15.6c-1.1 0-2 .9-2 2v8.8c.6-.2 1.3-.3 2-.3s1.4.1 2 .3v-6.8H30v-4z"/>
    <path class="st0" d="M30.1 50.5v-4h-14c.2.6.3 1.3.3 2s-.1 1.4-.3 2h14z"/>
    <path class="st0" d="M30.1 32.2H17.6v-6.8c-.6.2-1.3.3-2 .3s-1.4-.1-2-.3v8.8c0 1.1.9 2 2 2H30v-4z"/>
    <path class="st0" d="M86.9 85.2H46.6c-.5 0-1-.2-1.4-.6L30.7 70.1c-.4-.4-.6-.9-.6-1.4V28.3c0-.5.2-1 .6-1.4l14.5-14.5c.4-.4.9-.6 1.4-.6h40.3c.5 0 1 .2 1.4.6l14.5 14.5c.4.4.6.9.6 1.4v40.3c0 .5-.2 1-.6 1.4L88.3 84.6c-.3.4-.8.6-1.4.6zm-39.5-4h38.7l13.3-13.3V29.2L86.1 15.8H47.4L34.1 29.2v38.7l13.3 13.3z"/>
    <path class="st0" d="M125.2 56.7c-4.5 0-8.2-3.7-8.2-8.2s3.7-8.2 8.2-8.2c4.5 0 8.2 3.7 8.2 8.2s-3.7 8.2-8.2 8.2zm0-12.4c-2.3 0-4.2 1.9-4.2 4.2 0 2.3 1.9 4.2 4.2 4.2 2.3 0 4.2-1.9 4.2-4.2-.1-2.3-1.9-4.2-4.2-4.2z"/>
    <path class="st0" d="M117.7 87.7c-4.5 0-8.2-3.7-8.2-8.2s3.7-8.2 8.2-8.2c4.5 0 8.2 3.7 8.2 8.2s-3.7 8.2-8.2 8.2zm0-12.3c-2.3 0-4.2 1.9-4.2 4.2 0 2.3 1.9 4.2 4.2 4.2 2.3 0 4.2-1.9 4.2-4.2 0-2.4-1.9-4.2-4.2-4.2z"/>
    <path class="st0" d="M117.7 25.6c-4.5 0-8.2-3.7-8.2-8.2s3.7-8.2 8.2-8.2c4.5 0 8.2 3.7 8.2 8.2s-3.7 8.2-8.2 8.2zm0-12.3c-2.3 0-4.2 1.9-4.2 4.2 0 2.3 1.9 4.2 4.2 4.2 2.3 0 4.2-1.9 4.2-4.2 0-2.3-1.9-4.2-4.2-4.2z"/>
    <path class="st0" d="M117 48.5c0-.7.1-1.4.3-2h-13.8v4h13.8c-.2-.6-.3-1.3-.3-2z"/>
    <path class="st0" d="M115.7 71.6c.6-.2 1.3-.3 2-.3s1.4.1 2 .3v-8.8c0-1.1-.9-2-2-2h-14.2v4h12.2v6.8z"/>
    <path class="st0" d="M117.7 25.6c-.7 0-1.4-.1-2-.3v6.8h-12.2v4h14.2c1.1 0 2-.9 2-2v-8.8c-.6.2-1.3.3-2 .3z"/>
</symbol><symbol id="icon-atm" viewBox="0 0 105.7 116">
    <style>
        .st0{fill:#424242}
    </style>
    <path class="st0" d="M81.3 83.7c-3.9 0-7.1-3.2-7.1-7.1 0-3.9 3.2-7.1 7.1-7.1 3.9 0 7.1 3.2 7.1 7.1 0 3.9-3.2 7.1-7.1 7.1zm0-10.3c-1.7 0-3.2 1.4-3.2 3.2 0 1.7 1.4 3.2 3.2 3.2 1.7 0 3.2-1.4 3.2-3.2-.1-1.8-1.5-3.2-3.2-3.2z"/>
    <path class="st0" d="M23.8 105.7h-6.6c-1.1 0-2-.9-2-2s.9-2 2-2h6.6c1.1 0 2 .9 2 2s-.9 2-2 2z"/>
    <path class="st0" d="M43.6 105.7H37c-1.1 0-2-.9-2-2s.9-2 2-2h6.6c1.1 0 2 .9 2 2s-.9 2-2 2z"/>
    <path class="st0" d="M63.3 105.7h-6.6c-1.1 0-2-.9-2-2s.9-2 2-2h6.6c1.1 0 2 .9 2 2s-.9 2-2 2z"/>
    <path class="st0" d="M83.1 105.7h-6.6c-1.1 0-2-.9-2-2s.9-2 2-2h6.6c1.1 0 2 .9 2 2s-.9 2-2 2z"/>
    <path class="st0" d="M23.8 51.4h-6.6c-1.1 0-2-.9-2-2s.9-2 2-2h6.6c1.1 0 2 .9 2 2s-.9 2-2 2z"/>
    <path class="st0" d="M43.6 51.4H37c-1.1 0-2-.9-2-2s.9-2 2-2h6.6c1.1 0 2 .9 2 2s-.9 2-2 2z"/>
    <path class="st0" d="M63.3 51.4h-6.6c-1.1 0-2-.9-2-2s.9-2 2-2h6.6c1.1 0 2 .9 2 2s-.9 2-2 2z"/>
    <path class="st0" d="M83.1 51.4h-6.6c-1.1 0-2-.9-2-2s.9-2 2-2h6.6c1.1 0 2 .9 2 2s-.9 2-2 2z"/>
    <path class="st0" d="M103.7 90.2H71.9c-3.1 0-5.7-2.6-5.7-5.7V68.6c0-3.1 2.6-5.7 5.7-5.7h31.8c1.1 0 2 .9 2 2v23.3c0 1.1-.9 2-2 2zM71.9 66.9c-1 0-1.7.8-1.7 1.7v15.9c0 1 .8 1.7 1.7 1.7h29.8V66.9H71.9z"/>
    <path class="st0" d="M75.1 27.1h9.6c3.1 0 4.4 1.2 4.4 4.4 0 1.1.9 2 2 2s2-.9 2-2c0-5.3-3-8.3-8.3-8.3h-9.4l-.3 3.9z"/>
    <path class="st0" d="M100.4 62.9V44.1c0-3.8-3.1-7-7-7H12.9c-7.1 0-8.7-3.7-8.9-4.5 0-1.9.4-5.6 8.9-5.6h15.3l-.2-4H12.9C2.2 23.1 0 28.4 0 32.9V109c0 3.8 3.1 7 7 7h86.5c3.8 0 7-3.1 7-7V90.2h-4V109c0 1.6-1.3 3-3 3H7c-1.6 0-3-1.3-3-3V38.8c1.9 1.3 4.8 2.4 8.9 2.4h80.5c1.6 0 3 1.3 3 3V63h4z"/>
    <path class="st0" d="M66 37.1c3.5-3.7 5.3-8.4 5.3-13.5C71.3 12.8 62.5 4 51.6 4S32 12.8 32 23.7c0 5 1.9 9.8 5.3 13.5h-5.1c-2.7-3.9-4.2-8.6-4.2-13.5C28 10.6 38.6 0 51.6 0s23.7 10.6 23.7 23.7c0 4.9-1.5 9.6-4.2 13.5H66z"/>
    <path class="st0" d="M60.8 22c.5-.6.8-1.2 1-1.8.3-.8.5-1.7.5-2.5 0-3.8-3-6.9-6.7-7.1V8.1c0-1.1-.9-2-2-2s-2 .9-2 2v2.4h-2.9V8.1c0-1.1-.9-2-2-2s-2 .9-2 2v2.4h-2.4c-1.1 0-2 .9-2 2s.9 2 2 2h2.4v16.6h-2.4c-1.1 0-2 .9-2 2s.9 2 2 2h2.4v2.1h4v-2.1h2.9v2.1h4v-2.1h1.2c3.9 0 7.1-3.2 7.1-7.1 0-2.5-1.2-4.7-3.1-6zm-12.1-7.5h6.4c1.7 0 3.1 1.4 3.1 3.1 0 .4-.1.8-.2 1.1-.1.3-.2.5-.4.8-.6.8-1.5 1.3-2.5 1.3h-6.4v-6.3zm8.1 16.6h-8.1v-6.3h8.1c1.7 0 3.1 1.4 3.1 3.1.1 1.8-1.3 3.2-3.1 3.2z"/>
</symbol><symbol id="icon-facebook" viewBox="0 0 10 19">
    <title>
        facebook
    </title>
    <path d="M9.766.157v2.946H8.014c-.64 0-1.071.134-1.295.402-.223.268-.335.67-.335 1.205v2.11h3.27l-.435 3.303H6.384v8.471H2.97v-8.47H.123V6.82H2.97V4.387c0-1.384.387-2.457 1.161-3.22C4.904.404 5.934.023 7.222.023c1.093 0 1.941.045 2.544.134z" fill-rule="evenodd"/>
</symbol><symbol id="icon-ico" viewBox="0 0 124.3 103">
    <style>
        .st0{fill:#424242}
    </style>
    <path class="st0" d="M65.2 90.5c-2.3.9-4.7 1.6-7.1 2.2 1.9-1.6 3.7-3.5 5.4-5.6-.6-1.5-1.2-3.1-1.6-4.7-3.3 4.9-7.2 8.4-11.1 10.3V72.2H61c.1-1.4.2-2.7.4-4H50.8V29.5h17.8c1.6 5.2 2.5 11 2.7 17.3H57.9v4h12c1.6-1.8 3.5-3.4 5.5-4.8-.2-6-1.1-11.5-2.5-16.5h16.4c1.5 3.2 2.7 6.7 3.5 10.3.8-.1 1.6-.1 2.4-.1h1.7c-.9-4.6-2.4-8.9-4.4-12.9-.1-.2-.1-.3-.2-.5C84 10.7 67.6 0 48.8 0S13.6 10.7 5.5 26.3c-.1.1-.2.3-.2.4C1.9 33.4 0 40.9 0 48.8s1.9 15.4 5.3 22.1c.1.1.1.3.2.4C13.6 86.9 30 97.6 48.8 97.6c6.6 0 12.9-1.3 18.6-3.7-.7-1.1-1.5-2.2-2.2-3.4zm21.8-65H71.6c-3.2-9-8-16-13.5-20.5C70.3 7.6 80.7 15.2 87 25.5zM50.8 5c6.3 3.1 12.5 10.3 16.4 20.5H50.8V5zM39.5 5C34.1 9.5 29.2 16.5 26 25.5H10.6C16.9 15.2 27.3 7.6 39.5 5zM8.4 29.5h16.4c-1.4 5.2-2.3 11-2.5 17.3H4.1c.2-6.2 1.8-12 4.3-17.3zM4.1 50.8h18.2c.2 6.3 1.1 12.1 2.5 17.3H8.4C5.9 62.9 4.3 57 4.1 50.8zm6.5 21.4H26c3.2 9 8 16 13.5 20.5C27.3 90 16.9 82.5 10.6 72.2zm36.2 20.4c-6.3-3.1-12.5-10.3-16.4-20.5h9.4v-4H29c-1.6-5.2-2.5-11-2.7-17.3h20.5v41.8zm0-45.8H26.3c.2-6.3 1.2-12.2 2.7-17.3h10.7v-4h-9.4C34.3 15.3 40.5 8.1 46.8 5v41.8z"/>
    <path class="st0" d="M95.1 103C79 103 65.9 89.9 65.9 73.8S79 44.6 95.1 44.6c7.8 0 15.1 3 20.6 8.5 5.5 5.5 8.5 12.8 8.5 20.6.1 16.2-13 29.3-29.1 29.3zm0-54.3C81.2 48.7 70 60 70 73.8 70 87.7 81.2 99 95.1 99c13.9 0 25.1-11.3 25.1-25.1 0-6.7-2.6-13-7.4-17.8-4.7-4.8-11-7.4-17.7-7.4z"/>
    <path class="st0" d="M105.5 73.3c.1-.1.2-.3.3-.4.4-.6.8-1.3 1.1-2 .4-.9.5-1.9.5-2.9 0-4.3-3.4-7.8-7.6-8.1v-4.4c0-1.1-.9-2-2-2s-2 .9-2 2v4.3h-4.4v-4.3c0-1.1-.9-2-2-2s-2 .9-2 2v4.3h-3.1c-1.1 0-2 .9-2 2s.9 2 2 2h3.1v20.4h-3.1c-1.1 0-2 .9-2 2s.9 2 2 2h3.1v4.3c0 1.1.9 2 2 2s2-.9 2-2v-4.3h4.4v4.3c0 1.1.9 2 2 2s2-.9 2-2v-4.3h1.5c4.5 0 8.1-3.6 8.1-8.1 0-2.8-1.6-5.4-3.9-6.8zM99.3 64c2.3 0 4.1 1.8 4.1 4.1 0 .5-.1 1-.3 1.5-.1.4-.3.7-.5 1-.8 1-2 1.6-3.3 1.6h-7.9V64h7.9zm2 20.3h-10v-8.2h9.9c2.3 0 4.1 1.8 4.1 4.1.1 2.3-1.7 4.1-4 4.1z"/>
</symbol><symbol id="icon-maining" viewBox="0 0 107.1 116">
    <style>
        .st0{fill:#424242}
    </style>
    <path class="st0" d="M82.3 19h-.5c-.3-1-.7-2-1.2-3C76 6.3 66.1 0 55.3 0 43.5 0 32.9 7.5 28.9 18.7c-.8 2.3-1.3 4.6-1.5 7-1.6-.4-3.5-.6-5.7-.6C9.8 25.1 0 34.9 0 46.8c0 12 9.8 21.7 21.7 21.7h7.4c1.1 0 2-.9 2-2s-.9-2-2-2h-7.4C12 64.6 4 56.6 4 46.8 4 37 12 29 21.8 29c5.9 0 9 1.9 11.8 3.6l.8.5c1 .6 2.2.2 2.7-.7.6-.9.2-2.2-.7-2.7l-.8-.5c-1.2-.7-2.6-1.5-4.2-2.3.1-2.4.5-4.7 1.3-7 3.4-9.6 12.5-16 22.6-16C64.5 4 73.1 9.4 77 17.7c.3.6.5 1.1.7 1.7-2.2.4-4.4 1.1-6.5 2.2-1 .5-1.4 1.7-.9 2.7.5 1 1.7 1.4 2.7.9 2.9-1.5 6-2.2 9.3-2.2 11.5 0 20.8 9.3 20.8 20.8s-9.3 20.8-20.8 20.8h-1.4c-1.1 0-2 .9-2 2s.9 2 2 2h1.4c13.7 0 24.8-11.1 24.8-24.8C107.1 30.1 96 19 82.3 19z"/>
    <path class="st0" d="M43.3 59c-1.1 0-2-.9-2-2v-6.6c0-1.1.9-2 2-2s2 .9 2 2V57c0 1.1-.9 2-2 2z"/>
    <path class="st0" d="M54.9 59c-1.1 0-2-.9-2-2v-6.6c0-1.1.9-2 2-2s2 .9 2 2V57c0 1.1-.9 2-2 2z"/>
    <path class="st0" d="M54.9 43.6c-1.1 0-2-.9-2-2V35c0-1.1.9-2 2-2s2 .9 2 2v6.6c0 1.1-.9 2-2 2z"/>
    <path class="st0" d="M66.5 59c-1.1 0-2-.9-2-2v-6.6c0-1.1.9-2 2-2s2 .9 2 2V57c0 1.1-.9 2-2 2z"/>
    <path class="st0" d="M17.3 94.1c-4.5 0-8.1-3.7-8.1-8.1 0-4.5 3.7-8.1 8.1-8.1 4.5 0 8.1 3.7 8.1 8.1 0 4.4-3.6 8.1-8.1 8.1zm0-12.3c-2.3 0-4.2 1.9-4.2 4.2 0 2.3 1.9 4.2 4.2 4.2 2.3 0 4.2-1.9 4.2-4.2-.1-2.4-1.9-4.2-4.2-4.2z"/>
    <path class="st0" d="M54.9 116c-4.5 0-8.1-3.7-8.1-8.1 0-4.5 3.7-8.1 8.1-8.1 4.5 0 8.1 3.7 8.1 8.1.1 4.4-3.6 8.1-8.1 8.1zm0-12.3c-2.3 0-4.2 1.9-4.2 4.2 0 2.3 1.9 4.2 4.2 4.2 2.3 0 4.2-1.9 4.2-4.2 0-2.3-1.9-4.2-4.2-4.2z"/>
    <path class="st0" d="M92.6 94.1c-4.5 0-8.1-3.7-8.1-8.1 0-4.5 3.7-8.1 8.1-8.1 4.5 0 8.1 3.7 8.1 8.1 0 4.4-3.6 8.1-8.1 8.1zm0-12.3c-2.3 0-4.2 1.9-4.2 4.2 0 2.3 1.9 4.2 4.2 4.2 2.3 0 4.2-1.9 4.2-4.2-.1-2.4-1.9-4.2-4.2-4.2z"/>
    <path class="st0" d="M43.3 64.6c-1.1 0-2 .9-2 2v17.3H25.2c.2.6.3 1.3.3 2s-.1 1.4-.3 2h18.2c1.1 0 2-.9 2-2V66.6c-.1-1.1-1-2-2.1-2z"/>
    <path class="st0" d="M54.9 99.7c.7 0 1.4.1 2 .3V66.6c0-1.1-.9-2-2-2s-2 .9-2 2V100c.7-.2 1.3-.3 2-.3z"/>
    <path class="st0" d="M84.4 85.9c0-.7.1-1.4.3-2H68.5V66.6c0-1.1-.9-2-2-2s-2 .9-2 2v19.3c0 1.1.9 2 2 2h18.2c-.2-.6-.3-1.3-.3-2z"/>
</symbol><symbol id="icon-trade" viewBox="0 0 119.8 97">
    <style>
        .st0{fill:#424242}
    </style>
    <path class="st0" d="M61.5 93H49.4v-4.6c0-1.1-.9-2-2-2s-2 .9-2 2V93H35.1v-4.6c0-1.1-.9-2-2-2s-2 .9-2 2V93H20.8v-4.6c0-1.1-.9-2-2-2s-2 .9-2 2V93H10c-.6 0-1-.4-1-1v-9.5c0-.6.4-1 1-1h41.2c-.8-1.3-1.4-2.6-2.1-4H10c-2.8 0-5 2.2-5 5V92c0 2.8 2.2 5 5 5h58.1c-2.4-1.1-4.5-2.5-6.6-4z"/>
    <path class="st0" d="M49.2 77.5h-3.1v-4.6c0-1.1-.9-2-2-2s-2 .9-2 2v4.6H31.8v-4.6c0-1.1-.9-2-2-2s-2 .9-2 2v4.6H21c-.6 0-1-.4-1-1V67c0-.6.4-1 1-1h25c-.2-1.3-.2-2.6-.3-4H21c-2.8 0-5 2.2-5 5v9.5c0 2.8 2.2 5 5 5h30.2c-.7-1.3-1.4-2.6-2-4z"/>
    <path class="st0" d="M45.8 62h-1.4v-4.6c0-1.1-.9-2-2-2s-2 .9-2 2V62H30.1v-4.6c0-1.1-.9-2-2-2s-2 .9-2 2V62H15.8v-4.6c0-1.1-.9-2-2-2s-2 .9-2 2V62H5c-.6 0-1-.4-1-1v-9.5c0-.6.4-1 1-1h42.3c.4-1.4.9-2.7 1.4-4H5c-2.8 0-5 2.2-5 5V61c0 2.8 2.2 5 5 5h41c-.1-1.3-.2-2.6-.2-4z"/>
    <path class="st0" d="M48.7 46.5H43v-4.6c0-1.1-.9-2-2-2s-2 .9-2 2v4.6H28.8v-4.6c0-1.1-.9-2-2-2s-2 .9-2 2v4.6H18c-.6 0-1-.4-1-1V36c0-.6.4-1 1-1h38c1.3-1.4 2.7-2.8 4.2-4H18c-2.8 0-5 2.2-5 5v9.5c0 2.8 2.2 5 5 5h29.3c.4-1.4.9-2.7 1.4-4z"/>
    <path class="st0" d="M63.7 28.5v-2.1c0-1.1-.9-2-2-2s-2 .9-2 2V31H49.4v-4.6c0-1.1-.9-2-2-2s-2 .9-2 2V31H35.1v-4.6c0-1.1-.9-2-2-2s-2 .9-2 2V31H20.8v-4.6c0-1.1-.9-2-2-2s-2 .9-2 2V31H10c-.6 0-1-.4-1-1v-9.5c0-.6.4-1 1-1h60.5c.6 0 1 .4 1 1v4c1.3-.5 2.6-.9 4-1.2v-2.8c0-2.8-2.2-5-5-5H10c-2.8 0-5 2.2-5 5V30c0 2.8 2.2 5 5 5h46c2.3-2.5 4.9-4.7 7.7-6.5z"/>
    <path class="st0" d="M85.2 96.2c-19.1 0-34.7-15.5-34.7-34.7 0-19.1 15.5-34.7 34.7-34.7 19.1 0 34.7 15.5 34.7 34.7-.1 19.1-15.6 34.7-34.7 34.7zm0-65.3c-16.9 0-30.7 13.8-30.7 30.7s13.8 30.7 30.7 30.7 30.7-13.8 30.7-30.7c-.1-17-13.8-30.7-30.7-30.7z"/>
    <path class="st0" d="M85.2 87.5c-14.3 0-26-11.7-26-26s11.7-26 26-26 26 11.7 26 26-11.7 26-26 26zm0-48c-12.1 0-22 9.9-22 22s9.9 22 22 22 22-9.9 22-22-9.9-22-22-22z"/>
    <path class="st0" d="M94.2 60.1c.1-.1.1-.2.2-.2.4-.6.8-1.2 1-1.9.3-.9.5-1.8.5-2.7 0-4.2-3.4-7.7-7.7-7.7h-.9v-2.2c0-1.1-.9-2-2-2s-2 .9-2 2v2.2H81v-2.2c0-1.1-.9-2-2-2s-2 .9-2 2v2.2h-2.1c-1.1 0-2 .9-2 2s.9 2 2 2H77v18.7h-2.1c-1.1 0-2 .9-2 2s.9 2 2 2H77v2.2c0 1.1.9 2 2 2s2-.9 2-2v-2.2h2.4v2.2c0 1.1.9 2 2 2s2-.9 2-2v-2.2h2.7c4.2 0 7.7-3.4 7.7-7.7 0-2.7-1.4-5.1-3.6-6.5zm-5.9-8.5c2 0 3.7 1.6 3.7 3.7 0 .5-.1.9-.2 1.3-.1.3-.3.6-.5.9-.7.9-1.8 1.5-2.9 1.5H81v-7.3h7.3zm1.8 18.7H81V63h9.1c2 0 3.7 1.6 3.7 3.7 0 1.9-1.6 3.6-3.7 3.6z"/>
    <path class="st0" d="M77.5 0H17c-2.8 0-5 2.2-5 5v9.5c0 2.8 2.2 5 5 5h60.5c2.8 0 5-2.2 5-5V5c0-2.8-2.2-5-5-5zm1 14.5c0 .6-.4 1-1 1h-6.8v-4.6c0-1.1-.9-2-2-2s-2 .9-2 2v4.6H56.4v-4.6c0-1.1-.9-2-2-2s-2 .9-2 2v4.6H42.1v-4.6c0-1.1-.9-2-2-2s-2 .9-2 2v4.6H27.8v-4.6c0-1.1-.9-2-2-2s-2 .9-2 2v4.6H17c-.6 0-1-.4-1-1V5c0-.6.4-1 1-1h60.5c.6 0 1 .4 1 1v9.5z"/>
</symbol></svg>